…
``` r
#to show the output of the call to unnest()
majors_processed %>%
  select(Major, Major_category, Total, ShareWomen, Sample_size, Median) %>%
  add_count(Major_category) %>%
  filter(n >= 9) %>%
  nest(-Major_category) %>%
  mutate(model = map(data, ~ lm(Median ~ ShareWomen, data = ., weights = Sample_size)),
         tidied = map(model, tidy)) %>%
  unnest(tidied)
```

    ## # A tibble: 22 x 6
    ##    Major_category           term     estimate std.error statistic  p.value
    ##    <chr>                    <chr>       <dbl>     <dbl>     <dbl>    <dbl>
    ##  1 Engineering              (Interc~   63649.     3826.    16.6   1.02e-15
    ##  2 Engineering              ShareWo~  -33912.    15418.    -2.20  3.66e- 2
    ##  3 Business                 (Interc~   54603.     4875.    11.2   2.35e- 7
    ##  4 Business                 ShareWo~  -28171.     9810.    -2.87  1.52e- 2
    ##  5 Physical Sciences        (Interc~   44952.     6893.     6.52  1.84e- 4
    ##  6 Physical Sciences        ShareWo~  -12820.    13349.    -0.960 3.65e- 1
    ##  7 Computers & Mathematics  (Interc~   55334.     5669.     9.76  4.38e- 6
    ##  8 Computers & Mathematics  ShareWo~  -28694.    18552.    -1.55  1.56e- 1
    ##  9 Agriculture & Natural R~ (Interc~   42851.     2899.    14.8   1.55e- 6
    ## 10 Agriculture & Natural R~ ShareWo~  -16263.     5975.    -2.72  2.97e- 2
    ## # ... with 12 more rows
…
